<?xml version="1.0" ?>
<sdf version="1.5">
  <world name="default">

    <!-- A global light source -->
    <include>
      <uri>model://sun</uri>
    </include>

    <!-- A ground plane -->
    <include>
      <uri>model://ground_plane</uri>
    </include>

    <!-- Testing the automatic population of objects -->
    <population name="can_population1">
      <model name="can1">
        <include>
          <static>false</static>
          <uri>model://coke_can</uri>
        </include>
      </model>
      <pose>0 0.2 1.0 0 0 0</pose>
      <box>
        <size>0.4 0.4 0.01</size>
      </box>
      <model_count>5</model_count>
      <distribution>
        <type>random</type>
      </distribution>
    </population>

  </world>
</sdf>